…
``` r
library(tidyverse)
library(jsonlite)
```

## Usage

Currently there is a simple function to read from a JSON file:

``` r
extract_cvr(path = "data-raw/json/CvrExport_42.json") |> 
  as_tibble()
#> 0.036 sec elapsed
#> # A tibble: 1,216 × 22
#>    originalModified sessionType precinctPortionId ballotTypeId tabulatorId
#>    <chr>            <chr>                   <int>        <int>       <int>
#>  1 Original         ScannedVote               157           51          21
#>  2 Original         ScannedVote               157           51          21
#>  3 Original         ScannedVote               157           51          21
#>  4 Original         ScannedVote               157           51          21
#>  5 Original         ScannedVote               157           51          21
#>  6 Original         ScannedVote               157           51          21
#>  7 Original         ScannedVote               157           51          21
#>  8 Original         ScannedVote               157           51          21
#>  9 Original         ScannedVote               157           51          21
#> 10 Original         ScannedVote               157           51          21
#> # ℹ 1,206 more rows
#> # ℹ 17 more variables: batchId <int>, recordId <int>, countingGroupId <int>,
#> #   sessionIndex <int>, isCurrent <lgl>, cardId <int>, paperIndex <int>,
#> #   contestId <int>, overvotes <int>, undervotes <int>, candidateId <int>,
#> #   partyId <int>, rank <int>, isVote <lgl>, file <chr>, isAmbiguous <lgl>,
#> #   mdens <dbl>
```
…
``` r
extract_cvr(path = c("data-raw/json/CvrExport_42.json",
                     "data-raw/json/CvrExport_24940.json",
                     "data-raw/json/CvrExport_AZ-999.json"
                     )) |> 
  as_tibble()
#> 0.042 sec elapsed
#> # A tibble: 5,011 × 22
#>    originalModified sessionType precinctPortionId ballotTypeId tabulatorId
#>    <chr>            <chr>                   <int>        <int>       <int>
#>  1 Original         ScannedVote               157           51          21
#>  2 Original         ScannedVote               157           51          21
#>  3 Original         ScannedVote               157           51          21
#>  4 Original         ScannedVote               157           51          21
#>  5 Original         ScannedVote               157           51          21
#>  6 Original         ScannedVote               157           51          21
#>  7 Original         ScannedVote               157           51          21
#>  8 Original         ScannedVote               157           51          21
#>  9 Original         ScannedVote               157           51          21
#> 10 Original         ScannedVote               157           51          21
#> # ℹ 5,001 more rows
#> # ℹ 17 more variables: batchId <int>, recordId <int>, countingGroupId <int>,
#> #   sessionIndex <int>, isCurrent <lgl>, cardId <int>, paperIndex <int>,
#> #   contestId <int>, overvotes <int>, undervotes <int>, candidateId <int>,
#> #   partyId <int>, rank <int>, isVote <lgl>, file <chr>, isAmbiguous <lgl>,
#> #   mdens <dbl>
```
…
## Inside Manifest Files

Metadata about the contests are stored in Manifest files, e.g. for
contest codes, use `contestManifest.json` and for candidate codes use
`CandidateManifest.json`. These are single-table JSONs that are easy to
read, but we provide the function `read_manifest` that exports a tibble
and can extract from a zip file too.

``` r
 read_manifest("data-raw/json/BallotTypeContestManifest.json")
#> # A tibble: 2,462 × 2
#>    BallotTypeId ContestId
#>           <int>     <int>
#>  1            1         1
#>  2            1         4
#>  3            1         5
#>  4            1         7
#>  5            1         8
#>  6            1         9
#>  7            1        11
#>  8            1        17
#>  9            1        18
#> 10            1        19
#> # ℹ 2,452 more rows
```

``` r
 read_manifest("data-raw/json/BallotTypeManifest.json")
#> # A tibble: 96 × 3
#>    Description       Id ExternalId
#>    <chr>          <int> <chr>     
#>  1 Ballot Type 1      1 1         
#>  2 Ballot Type 11     2 11        
#>  3 Ballot Type 13     3 13        
#>  4 Ballot Type 22     4 22        
#>  5 Ballot Type 10     5 10        
#>  6 Ballot Type 14     6 14        
#>  7 Ballot Type 26     7 26        
#>  8 Ballot Type 19     8 19        
#>  9 Ballot Type 16     9 16        
#> 10 Ballot Type 18    10 18        
#> # ℹ 86 more rows
```

``` r
 read_manifest("data-raw/json/CandidateManifest.json")
#> # A tibble: 139 × 6
#>    Description                            Id ExternalId ContestId Type  Disabled
#>    <chr>                               <int> <chr>          <int> <chr>    <int>
#>  1 "JOSEPH R. BIDEN AND KAMALA D. HAR…    59 ""                 1 Regu…        0
#>  2 "DONALD J. TRUMP AND MICHAEL R. PE…    54 ""                 1 Regu…        0
#>  3 "GLORIA LA RIVA AND SUNIL FREEMAN"     55 ""                 1 Regu…        0
#>  4 "ROQUE \"ROCKY\" DE LA FUENTE GUER…    56 ""                 1 Regu…        0
#>  5 "HOWIE HAWKINS AND ANGELA NICOLE W…    57 ""                 1 Regu…        0
#>  6 "JO JORGENSEN AND JEREMY \"SPIKE\"…    58 ""                 1 Regu…        0
#>  7 "Write-in"                            126 ""                 1 Writ…        0
#>  8 "BRIAN CARROLL AND AMAR PATEL"        133 ""                 1 Qual…        0
#>  9 "MARK CHARLES AND ADRIAN WALLACE"     134 ""                 1 Qual…        0
#> 10 "JOSEPH KISHORE AND NORISSA SANTA …   135 ""                 1 Qual…        0
#> # ℹ 129 more rows
```

``` r
 read_manifest("data-raw/json/ContestManifest.json")
#> # A tibble: 42 × 7
#>    Description              Id ExternalId DistrictId VoteFor NumOfRanks Disabled
#>    <chr>                 <int> <chr>           <int>   <int>      <int>    <int>
#>  1 PRESIDENT AND VICE P…     1 110               101       1          0        0
#>  2 US House of Rep Dist…     2 1020              102       1          0        0
#>  3 US House of Rep Dist…     3 1030              103       1          0        0
#>  4 US House of Rep Dist…     4 1040              104       1          0        0
#>  5 State Senator Distri…     5 1130              105       1          0        0
#>  6 STATE ASSEMBLY MEMBE…     6 1310              106       1          0        0
#>  7 STATE ASSEMBLY MEMBE…     7 1210              107       1          0        0
#>  8 BOARD OF EDUCATION        8 6100              121       4          0        0
#>  9 COMMUNITY COLLEGE BO…     9 8530              121       4          0        0
#> 10 BART DIRECTOR DISTRI…    10 6000              122       1          0        0
#> # ℹ 32 more rows
```

``` r
 read_manifest("data-raw/json/CountingGroupManifest.json")
#> # A tibble: 2 × 3
#>   Description     Id ExternalId
#>   <chr>        <int> <chr>     
#> 1 Election Day     1 ""        
#> 2 Vote by Mail     2 ""
```

``` r
 read_manifest("data-raw/json/DistrictManifest.json")
#> # A tibble: 50 × 4
#>    Description     Id DistrictTypeId                       ExternalId
#>    <chr>        <int> <chr>                                <chr>     
#>  1 Electionwide   150 f92d02b4-af65-436a-8ebf-c2dc25d637dd ""        
#>  2 CALIFORNIA     101 7278d62c-8a58-47f6-bc3f-f2cdd1f8740c "CA"      
#>  3 12TH CONG      102 34fdf5a8-a188-4ec1-9590-ccfeb16ccb5e "CON012"  
#>  4 13TH CONG      103 34fdf5a8-a188-4ec1-9590-ccfeb16ccb5e "CON013"  
#>  5 14TH CONG      104 34fdf5a8-a188-4ec1-9590-ccfeb16ccb5e "CON014"  
#>  6 11TH SENATE    105 ec30ee2d-f0e1-4250-8f78-69ba32d1d60b "266"     
#>  7 17TH ASMBLY    106 90ddf079-3ab8-4d2a-8df2-1220072c93b5 "ASM017"  
#>  8 19TH ASMBLY    107 90ddf079-3ab8-4d2a-8df2-1220072c93b5 "ASM019"  
#>  9 BD EQ,DIST2    108 aa7f3fd3-9095-4008-95a5-90a4dd6d536d "BOE002"  
#> 10 County Wide    109 b6746389-47c1-46bc-b30c-212a8a794a3a "SF"      
#> # ℹ 40 more rows
```

``` r
 read_manifest("data-raw/json/DistrictPrecinctPortionManifest.json")
#> # A tibble: 6,432 × 2
#>    DistrictId PrecinctPortionId
#>         <int>             <int>
#>  1        150                 1
#>  2        150                 2
#>  3        150                 3
#>  4        150                 4
#>  5        150                 5
#>  6        150                 6
#>  7        150                 7
#>  8        150                 8
#>  9        150                 9
#> 10        150                10
#> # ℹ 6,422 more rows
```
…
``` r
 read_manifest("data-raw/json/PrecinctManifest.json")
#> # A tibble: 609 × 3
#>    Description      Id ExternalId
#>    <chr>         <int> <chr>     
#>  1 PCT 1101          1 1101-1    
#>  2 PCT 1102          2 1102-1    
#>  3 PCT 1103          3 1103-1    
#>  4 PCT 1104/1105     4 1104-1    
#>  5 PCT 1106          5 1106-2    
#>  6 PCT 1107          6 1107-2    
#>  7 PCT 1108          7 1108-2    
#>  8 PCT 1109          8 1109-2    
#>  9 PCT 1111          9 1111-2    
#> 10 PCT 1112         10 1112-2    
#> # ℹ 599 more rows
```

``` r
 read_manifest("data-raw/json/PrecinctPortionManifest.json")
#> # A tibble: 609 × 4
#>    Description      Id ExternalId PrecinctId
#>    <chr>         <int> <chr>           <int>
#>  1 PCT 1101          1 1101-1              1
#>  2 PCT 1102          2 1102-1              2
#>  3 PCT 1103          3 1103-1              3
#>  4 PCT 1104/1105     4 1104-1              4
#>  5 PCT 1106          5 1106-2              5
#>  6 PCT 1107          6 1107-2              6
#>  7 PCT 1108          7 1108-2              7
#>  8 PCT 1109          8 1109-2              8
#>  9 PCT 1111          9 1111-2              9
#> 10 PCT 1112         10 1112-2             10
#> # ℹ 599 more rows
```

``` r
 read_manifest("data-raw/json/TabulatorManifest.json")
#> # A tibble: 1,246 × 10
#>    Description       Id VotingLocationNumber VotingLocationName ExternalId Type 
#>    <chr>          <int>                <int> <chr>              <chr>      <chr>
#>  1 ICC01 Electio…     1                    1 City Hall          ""         Imag…
#>  2 ICC02 Electio…     2                    1 City Hall          ""         Imag…
#>  3 ICC03 Electio…     3                    1 City Hall          ""         Imag…
#>  4 ICC04 Electio…     4                    1 City Hall          ""         Imag…
#>  5 ICC05 Electio…     5                    1 City Hall          ""         Imag…
#>  6 ICC06 Electio…     6                    1 City Hall          ""         Imag…
#>  7 ICC07 Electio…     7                    1 City Hall          ""         Imag…
#>  8 ICC08 Electio…     8                    1 City Hall          ""         Imag…
#>  9 ICC09 Electio…     9                    1 City Hall          ""         Imag…
#> 10 ICC10 Electio…    10                    1 City Hall          ""         Imag…
#> # ℹ 1,236 more rows
#> # ℹ 4 more variables: ThresholdMin <int>, ThresholdMax <int>,
#> #   WriteThresholdMin <int>, WriteThresholdMax <int>
```
